{
  "modelPackage": "org.jetbrains.teamcity.rest.client.model",
  "apiPackage": "org.jetbrains.teamcity.rest.client.api",
  "invokerPackage": "org.jetbrains.teamcity.rest.client.swagger",

  "groupId": "org.jetbrains.teamcity",
  "artifactId": "teamcity-rest-client-swagger",
  "artifactVersion": "0.1.0-SNAPSHOT",

  "localVariablePrefix": "__",
  "fullJavaUtil": true,
  "withXml": true,
  "useBeanValidator": true,
  "performBeanValidation": true,

  "dateLibrary": "java8",
  "library": "jersey2",

  "hideGenerationTimestamp": true
}
